{
  "Comment": "A Step Function to first invoke Lambda suggest_instance function and check the response for condition to continue to invoke Lambda downsize_instance function",
  "StartAt": "SuggestInstanceLambda",
  "States": {
    "SuggestInstanceLambda": {
      "Type": "Task",
      "Resource": "${LambdaSuggestInstanceFunction}",
      "InputPath": "$",
      "Next": "CheckCondition"
    },
    "CheckCondition": {
      "Type": "Choice",
      "Choices": [
        {
          "And": [
            {
              "Variable": "$.statusCode",
              "NumericEquals": 200
            },
            {
              "Variable": "$.body.nextStep",
              "BooleanEquals": true
            }
          ],
          "Next": "ConfirmInstanceLambda"
        }
      ],
      "Default": "EndState"
    },
    "ConfirmInstanceLambda": {
      "Type": "Task",
      "Resource": "${LambdaConfirmInstanceFunction}",
      "Next": "DownsizeInstanceLambda"
    },
    "DownsizeInstanceLambda": {
      "Type": "Task",
      "Resource": "${LambdaDownsizeInstanceFunction}",
      "Next": "ValidateOperationLambda"
    },
    "ValidateOperationLambda": {
      "Type": "Task",
      "Resource": "${LambdaValidateOperationFunction}",
      "Next": "EndState"
    },
    "EndState": {
      "Type": "Succeed"
    }
  }
}
